{
    "items": [
        {
            "id": "a1",
            "title": "item 1"
        },
        {
            "id": "a2",
            "title": "item 2"
        },
        {
            "id": "a3",
            "title": "item 3"
        }
    ]
}
